…
``` r
as.character(gap_gs$country)
```

    ##  [1] "Germany" "Germany" "Germany" "Germany" "Germany" "Germany" "Germany"
    ##  [8] "Germany" "Germany" "Germany" "Germany" "Germany" "Sweden"  "Sweden" 
    ## [15] "Sweden"  "Sweden"  "Sweden"  "Sweden"  "Sweden"  "Sweden"  "Sweden" 
    ## [22] "Sweden"  "Sweden"  "Sweden"

``` r
gap_gs
```

    ## # A tibble: 24 x 6
    ##    country continent  year lifeExp      pop gdpPercap
    ##    <fct>   <fct>     <int>   <dbl>    <int>     <dbl>
    ##  1 Germany Europe     1952    67.5 69145952     7144.
    ##  2 Germany Europe     1957    69.1 71019069    10188.
    ##  3 Germany Europe     1962    70.3 73739117    12902.
    ##  4 Germany Europe     1967    70.8 76368453    14746.
    ##  5 Germany Europe     1972    71.0 78717088    18016.
    ##  6 Germany Europe     1977    72.5 78160773    20513.
    ##  7 Germany Europe     1982    73.8 78335266    22032.
    ##  8 Germany Europe     1987    74.8 77718298    24639.
    ##  9 Germany Europe     1992    76.1 80597764    26505.
    ## 10 Germany Europe     1997    77.3 82011073    27789.
    ## # ... with 14 more rows

Sometimes keeping the levels is good. Other times, not.

**Example of when it's good**:

Here's the gapminder data down to rows where population is less than a quarter of a million, i.e. 250,000:

``` r
gap_small <- gapminder %>% 
  filter(pop < 250000)
gap_small
```

    ## # A tibble: 41 x 6
    ##    country  continent  year lifeExp    pop gdpPercap
    ##    <fct>    <fct>     <int>   <dbl>  <int>     <dbl>
    ##  1 Bahrain  Asia       1952    50.9 120447     9867.
    ##  2 Bahrain  Asia       1957    53.8 138655    11636.
    ##  3 Bahrain  Asia       1962    56.9 171863    12753.
    ##  4 Bahrain  Asia       1967    59.9 202182    14805.
    ##  5 Bahrain  Asia       1972    63.3 230800    18269.
    ##  6 Comoros  Africa     1952    40.7 153936     1103.
    ##  7 Comoros  Africa     1957    42.5 170928     1211.
    ##  8 Comoros  Africa     1962    44.5 191689     1407.
    ##  9 Comoros  Africa     1967    46.5 217378     1876.
    ## 10 Djibouti Africa     1952    34.8  63149     2670.
    ## # ... with 31 more rows
…
Re-coding a Factor
------------------

Want "United States" to read "USA" instead? Just use `fct_recode()`. (Sadly, no metaprogramming happens here).

Exercise: modify the following code to also change "Canada" to read "Can". Hint: use a comma.

``` r
gap_big_north <- gapminder %>% 
  filter(country %in% c("Canada", "United States", "Mexico")) %>% 
  droplevels()
gap_big_north
```

    ## # A tibble: 36 x 6
    ##    country continent  year lifeExp      pop gdpPercap
    ##    <fct>   <fct>     <int>   <dbl>    <int>     <dbl>
    ##  1 Canada  Americas   1952    68.8 14785584    11367.
    ##  2 Canada  Americas   1957    70.0 17010154    12490.
    ##  3 Canada  Americas   1962    71.3 18985849    13462.
    ##  4 Canada  Americas   1967    72.1 20819767    16077.
    ##  5 Canada  Americas   1972    72.9 22284500    18971.
    ##  6 Canada  Americas   1977    74.2 23796400    22091.
    ##  7 Canada  Americas   1982    75.8 25201900    22899.
    ##  8 Canada  Americas   1987    76.9 26549700    26627.
    ##  9 Canada  Americas   1992    78.0 28523502    26343.
    ## 10 Canada  Americas   1997    78.6 30305843    28955.
    ## # ... with 26 more rows
…
Exercises
---------

Use the `gss_cat` data to answer the following questions (from <http://r4ds.had.co.nz/factors.html>).

1.  (15.3.1 Ex. 1) Explore the distribution of rincome (reported income). What makes the default bar chart hard to understand? How could you improve the plot?

``` r
library(ggplot2)
forcats::gss_cat
```

    ## # A tibble: 21,483 x 9
    ##     year marital         age race  rincome  partyid  relig  denom  tvhours
    ##    <int> <fct>         <int> <fct> <fct>    <fct>    <fct>  <fct>    <int>
    ##  1  2000 Never married    26 White $8000 t~ Ind,nea~ Prote~ South~      12
    ##  2  2000 Divorced         48 White $8000 t~ Not str~ Prote~ Bapti~      NA
    ##  3  2000 Widowed          67 White Not app~ Indepen~ Prote~ No de~       2
    ##  4  2000 Never married    39 White Not app~ Ind,nea~ Ortho~ Not a~       4
    ##  5  2000 Divorced         25 White Not app~ Not str~ None   Not a~       1
    ##  6  2000 Married          25 White $20000 ~ Strong ~ Prote~ South~      NA
    ##  7  2000 Never married    36 White $25000 ~ Not str~ Chris~ Not a~       3
    ##  8  2000 Divorced         44 White $7000 t~ Ind,nea~ Prote~ Luthe~      NA
    ##  9  2000 Married          44 White $25000 ~ Not str~ Prote~ Other        0
    ## 10  2000 Married          47 White $25000 ~ Strong ~ Prote~ South~       3
    ## # ... with 21,473 more rows
…
