…
read.csv: base R, character vectors loaded as factors read\_csv: tidyverse, character vectors load as characters

Reading and Writing Data: Exercises
-----------------------------------

Make a tibble of letters, their order in the alphabet, and then a pasting of the two columns together.

``` r
tibble(let = letters, 
       num = 1:length(letters),
       comb = paste(let, num, sep = "blargh"))
```

    ## # A tibble: 26 x 3
    ##    let     num comb     
    ##    <chr> <int> <chr>    
    ##  1 a         1 ablargh1 
    ##  2 b         2 bblargh2 
    ##  3 c         3 cblargh3 
    ##  4 d         4 dblargh4 
    ##  5 e         5 eblargh5 
    ##  6 f         6 fblargh6 
    ##  7 g         7 gblargh7 
    ##  8 h         8 hblargh8 
    ##  9 i         9 iblargh9 
    ## 10 j        10 jblargh10
    ## # ... with 16 more rows
…
``` r
read_delim("iris.txt", delim = "$")
```

    ## Parsed with column specification:
    ## cols(
    ##   Sepal.Length = col_double(),
    ##   Sepal.Width = col_double(),
    ##   Petal.Length = col_double(),
    ##   Petal.Width = col_double(),
    ##   Species = col_character()
    ## )

    ## # A tibble: 150 x 5
    ##    Sepal.Length Sepal.Width Petal.Length Petal.Width Species
    ##           <dbl>       <dbl>        <dbl>       <dbl> <chr>  
    ##  1         5.10        3.50         1.40       0.200 setosa 
    ##  2         4.90        3.00         1.40       0.200 setosa 
    ##  3         4.70        3.20         1.30       0.200 setosa 
    ##  4         4.60        3.10         1.50       0.200 setosa 
    ##  5         5.00        3.60         1.40       0.200 setosa 
    ##  6         5.40        3.90         1.70       0.400 setosa 
    ##  7         4.60        3.40         1.40       0.300 setosa 
    ##  8         5.00        3.40         1.50       0.200 setosa 
    ##  9         4.40        2.90         1.40       0.200 setosa 
    ## 10         4.90        3.10         1.50       0.100 setosa 
    ## # ... with 140 more rows
…
